<?xml version="1.0" encoding="UTF-8" standalone="no"?>
<!-- Created with Inkscape (http://www.inkscape.org/) -->

<svg
   width="210mm"
   height="297mm"
   viewBox="0 0 210 297"
   version="1.1"
   id="svg5"
   sodipodi:docname="callsign_sign_box.svg"
   inkscape:version="1.1 (c68e22c387, 2021-05-23)"
   xmlns:inkscape="http://www.inkscape.org/namespaces/inkscape"
   xmlns:sodipodi="http://sodipodi.sourceforge.net/DTD/sodipodi-0.dtd"
   xmlns="http://www.w3.org/2000/svg"
   xmlns:svg="http://www.w3.org/2000/svg">
  <sodipodi:namedview
     id="namedview7"
     pagecolor="#ffffff"
     bordercolor="#666666"
     borderopacity="1.0"
     inkscape:pageshadow="2"
     inkscape:pageopacity="0.0"
     inkscape:pagecheckerboard="0"
     inkscape:document-units="mm"
     showgrid="false"
     inkscape:zoom="0.72337262"
     inkscape:cx="664.24964"
     inkscape:cy="535.68519"
     inkscape:window-width="1920"
     inkscape:window-height="1001"
     inkscape:window-x="1591"
     inkscape:window-y="-9"
     inkscape:window-maximized="1"
     inkscape:current-layer="layer1"
     inkscape:snap-global="true" />
  <defs
     id="defs2" />
  <g
     inkscape:label="Layer 1"
     inkscape:groupmode="layer"
     id="layer1">
    <g
       id="panel6071"
       transform="translate(-39.270369,21.038913)"
       style="stroke:#ff0000;stroke-opacity:1">
      <path
         style="fill:none;stroke:#ff0000;stroke-width:1;stroke-opacity:1"
         d="m 48.1,103.2 h 6.09 v -3 h 6.1 v 3 h 6.04 v -3 h 6.1 v 3 h 6.04 v -3 h 6.1 v 3 h 6.04 v -3 h 6.1 v 3 h 6.04 v -3 h 6.1 v 3 h 6.04 v -3 h 6.1 v 3 h 6.04 v -3 h 6.1 v 3 h 6.04 v -3 h 6.1 v 3 h 6.04 v -3 h 6.1 v 3 h 6.04 v -3 h 6.1 v 3 h 6.04 v -3 h 6.1 v 3 h 6.04 v -3 h 6.1 v 3 h 6.04 v -3 h 6.1 v 3 h 6.04 v -3 h 6.1 v 3 h 6.09"
         id="path874" />
      <path
         style="fill:none;stroke:#ff0000;stroke-width:1;stroke-opacity:1"
         d="m 224.2,103.2 v 4.075 h -3 v 5.9 h 3 v 7.125 h -3 v 5.9 h 3 v 7.125 h -3 v 5.9 h 3 v 4.075"
         id="path876" />
      <path
         style="fill:none;stroke:#ff0000;stroke-width:1;stroke-opacity:1"
         d="m 224.2,143.3 h -6.09 v 3 h -6.1 v -3 h -6.04 v 3 h -6.1 v -3 h -6.04 v 3 h -6.1 v -3 h -6.04 v 3 h -6.1 v -3 h -6.04 v 3 h -6.1 v -3 h -6.04 v 3 h -6.1 v -3 h -6.04 v 3 h -6.1 v -3 h -6.04 v 3 h -6.1 v -3 h -6.04 v 3 h -6.1 v -3 h -6.04 v 3 h -6.1 v -3 h -6.04 v 3 h -6.1 v -3 h -6.04 v 3 h -6.1 v -3 h -6.04 v 3 h -6.1 v -3 h -6.04 v 3 h -6.1 v -3 H 48.1"
         id="path878" />
      <path
         style="fill:none;stroke:#ff0000;stroke-width:1;stroke-opacity:1"
         d="m 48.1,143.3 v -4.075 h 3 v -5.9 h -3 V 126.2 h 3 v -5.9 h -3 v -7.125 h 3 v -5.9 h -3 V 103.2"
         id="path880" />
    </g>
    <g
       id="panel2735"
       transform="translate(94.732759,127.65147)"
       style="stroke:#ff0000;stroke-opacity:1">
      <path
         style="fill:none;stroke:#ff0000;stroke-width:1;stroke-opacity:1"
         d="m 4,51.1 h 3.975 v -3 h 6.1 v 3 H 21 v -3 h 6.1 v 3 h 6.925 v -3 h 6.1 v 3 H 44.1"
         id="path913" />
      <path
         style="fill:none;stroke:#ff0000;stroke-width:1;stroke-opacity:1"
         d="m 44.1,51.1 v 5.225 h 3 v 6.1 h -3 V 70.6 h 3 v 6.1 h -3 v 8.175 h 3 v 6.1 h -3 V 96.2"
         id="path915" />
      <path
         style="fill:none;stroke:#ff0000;stroke-width:1;stroke-opacity:1"
         d="m 44.1,96.2 h -3.975 v 3 h -6.1 v -3 H 27.1 v 3 H 21 v -3 h -6.925 v 3 h -6.1 v -3 H 4"
         id="path917" />
      <path
         style="fill:none;stroke:#ff0000;stroke-width:1;stroke-opacity:1"
         d="M 4,96.2 V 90.975 H 1 v -6.1 H 4 V 76.7 H 1 V 70.6 H 4 V 62.425 H 1 v -6.1 H 4 V 51.1"
         id="path919" />
    </g>
    <g
       id="panel646"
       transform="translate(-38.638842,16.186696)"
       style="stroke:#ff0000;stroke-opacity:1">
      <path
         style="fill:none;stroke:#ff0000;stroke-width:1;stroke-opacity:1"
         d="m 48.1,48.1 h 6.19 v 3 h 5.9 v -3 h 6.24 v 3 h 5.9 v -3 h 6.24 v 3 h 5.9 v -3 h 6.24 v 3 h 5.9 v -3 h 6.24 v 3 h 5.9 v -3 h 6.24 v 3 h 5.9 v -3 h 6.24 v 3 h 5.9 v -3 h 6.24 v 3 h 5.9 v -3 h 6.24 v 3 h 5.9 v -3 h 6.24 v 3 h 5.9 v -3 h 6.24 v 3 h 5.9 v -3 h 6.24 v 3 h 5.9 v -3 h 6.24 v 3 h 5.9 v -3 h 6.24 v 3 h 5.9 v -3 h 6.19"
         id="path961" />
      <path
         style="fill:none;stroke:#ff0000;stroke-width:1;stroke-opacity:1"
         d="m 224.2,48.1 v 8.325 h -3 v 5.9 h 3 V 70.7 h -3 v 5.9 h 3 v 8.375 h -3 v 5.9 h 3 V 99.2"
         id="path963" />
      <path
         style="fill:none;stroke:#ff0000;stroke-width:1;stroke-opacity:1"
         d="m 224.2,99.2 h -6.19 v -3 h -5.9 v 3 h -6.24 v -3 h -5.9 v 3 h -6.24 v -3 h -5.9 v 3 h -6.24 v -3 h -5.9 v 3 h -6.24 v -3 h -5.9 v 3 h -6.24 v -3 h -5.9 v 3 h -6.24 v -3 h -5.9 v 3 h -6.24 v -3 h -5.9 v 3 h -6.24 v -3 h -5.9 v 3 h -6.24 v -3 h -5.9 v 3 h -6.24 v -3 h -5.9 v 3 h -6.24 v -3 h -5.9 v 3 h -6.24 v -3 h -5.9 v 3 h -6.24 v -3 h -5.9 v 3 H 48.1"
         id="path965" />
      <path
         style="fill:none;stroke:#ff0000;stroke-width:1;stroke-opacity:1"
         d="m 48.1,99.2 v -8.325 h 3 v -5.9 h -3 V 76.6 h 3 v -5.9 h -3 v -8.375 h 3 v -5.9 h -3 V 48.1"
         id="path967" />
    </g>
    <g
       id="panel6703"
       transform="translate(-66.568966,128.01724)"
       style="stroke:#ff0000;stroke-opacity:1">
      <path
         style="fill:none;stroke:#ff0000;stroke-width:1;stroke-opacity:1"
         d="m 228.2,51.1 h 3.975 v -3 h 6.1 v 3 h 6.925 v -3 h 6.1 v 3 h 6.925 v -3 h 6.1 v 3 h 3.975"
         id="path970" />
      <path
         style="fill:none;stroke:#ff0000;stroke-width:1;stroke-opacity:1"
         d="m 268.3,51.1 v 5.225 h 3 v 6.1 h -3 V 70.6 h 3 v 6.1 h -3 v 8.175 h 3 v 6.1 h -3 V 96.2"
         id="path972" />
      <path
         style="fill:none;stroke:#ff0000;stroke-width:1;stroke-opacity:1"
         d="m 268.3,96.2 h -3.975 v 3 h -6.1 v -3 H 251.3 v 3 h -6.1 v -3 h -6.925 v 3 h -6.1 v -3 H 228.2"
         id="path974" />
      <path
         style="fill:none;stroke:#ff0000;stroke-width:1;stroke-opacity:1"
         d="m 228.2,96.2 v -5.225 h -3 v -6.1 h 3 V 76.7 h -3 v -6.1 h 3 v -8.175 h -3 v -6.1 h 3 V 51.1"
         id="path976" />
    </g>
    <g
       id="panel5352"
       transform="translate(-261.15517,186.90518)"
       style="stroke:#ff0000;stroke-opacity:1">
      <path
         style="fill:none;stroke:#ff0000;stroke-width:1;stroke-opacity:1"
         d="m 272.3,48.1 h 6.19 v 3 h 5.9 v -3 h 6.24 v 3 h 5.9 v -3 h 6.24 v 3 h 5.9 v -3 h 6.24 v 3 h 5.9 v -3 h 6.24 v 3 h 5.9 v -3 h 6.24 v 3 h 5.9 v -3 h 6.24 v 3 h 5.9 v -3 h 6.24 v 3 h 5.9 v -3 h 6.24 v 3 h 5.9 v -3 h 6.24 v 3 h 5.9 v -3 h 6.24 v 3 h 5.9 v -3 h 6.24 v 3 h 5.9 v -3 h 6.24 v 3 h 5.9 v -3 h 6.24 v 3 h 5.9 v -3 h 6.19"
         id="path979" />
      <path
         style="fill:none;stroke:#ff0000;stroke-width:1;stroke-opacity:1"
         d="m 448.4,48.1 v 8.325 h -3 v 5.9 h 3 V 70.7 h -3 v 5.9 h 3 v 8.375 h -3 v 5.9 h 3 V 99.2"
         id="path981" />
      <path
         style="fill:none;stroke:#ff0000;stroke-width:1;stroke-opacity:1"
         d="m 448.4,99.2 h -6.19 v -3 h -5.9 v 3 h -6.24 v -3 h -5.9 v 3 h -6.24 v -3 h -5.9 v 3 h -6.24 v -3 h -5.9 v 3 h -6.24 v -3 h -5.9 v 3 h -6.24 v -3 h -5.9 v 3 h -6.24 v -3 h -5.9 v 3 h -6.24 v -3 h -5.9 v 3 h -6.24 v -3 h -5.9 v 3 h -6.24 v -3 h -5.9 v 3 h -6.24 v -3 h -5.9 v 3 h -6.24 v -3 h -5.9 v 3 h -6.24 v -3 h -5.9 v 3 h -6.24 v -3 h -5.9 v 3 h -6.19"
         id="path983" />
      <path
         style="fill:none;stroke:#ff0000;stroke-width:1;stroke-opacity:1"
         d="m 272.3,99.2 v -8.325 h 3 v -5.9 h -3 V 76.6 h 3 v -5.9 h -3 v -8.375 h 3 v -5.9 h -3 V 48.1"
         id="path985" />
    </g>
    <g
       id="panel338"
       transform="translate(-38.405172,7.6810345)"
       style="stroke:#ff0000;stroke-opacity:1">
      <path
         style="fill:none;stroke:#ff0000;stroke-width:1;stroke-opacity:1"
         d="m 48.1,4 h 6.09 V 1 h 6.1 v 3 h 6.04 V 1 h 6.1 v 3 h 6.04 V 1 h 6.1 v 3 h 6.04 V 1 h 6.1 v 3 h 6.04 V 1 h 6.1 v 3 h 6.04 V 1 h 6.1 v 3 h 6.04 V 1 h 6.1 v 3 h 6.04 V 1 h 6.1 v 3 h 6.04 V 1 h 6.1 v 3 h 6.04 V 1 h 6.1 v 3 h 6.04 V 1 h 6.1 v 3 h 6.04 V 1 h 6.1 v 3 h 6.04 V 1 h 6.1 v 3 h 6.04 V 1 h 6.1 v 3 h 6.09"
         id="path988" />
      <path
         style="fill:none;stroke:#ff0000;stroke-width:1;stroke-opacity:1"
         d="m 224.2,4 v 4.075 h -3 v 5.9 h 3 V 21.1 h -3 V 27 h 3 v 7.125 h -3 v 5.9 h 3 V 44.1"
         id="path990" />
      <path
         style="fill:none;stroke:#ff0000;stroke-width:1;stroke-opacity:1"
         d="m 224.2,44.1 h -6.09 v 3 h -6.1 v -3 h -6.04 v 3 h -6.1 v -3 h -6.04 v 3 h -6.1 v -3 h -6.04 v 3 h -6.1 v -3 h -6.04 v 3 h -6.1 v -3 h -6.04 v 3 h -6.1 v -3 h -6.04 v 3 h -6.1 v -3 h -6.04 v 3 h -6.1 v -3 h -6.04 v 3 h -6.1 v -3 h -6.04 v 3 h -6.1 v -3 h -6.04 v 3 h -6.1 v -3 h -6.04 v 3 h -6.1 v -3 h -6.04 v 3 h -6.1 v -3 h -6.04 v 3 h -6.1 v -3 H 48.1"
         id="path992" />
      <path
         style="fill:none;stroke:#ff0000;stroke-width:1;stroke-opacity:1"
         d="m 48.1,44.1 v -4.075 h 3 v -5.9 h -3 V 27 h 3 v -5.9 h -3 v -7.125 h 3 v -5.9 h -3 V 4"
         id="path994" />
    </g>
  </g>
</svg>
