<?xml version="1.0" encoding="UTF-8" standalone="no"?>
<!-- Created with Inkscape (http://www.inkscape.org/) -->

<svg
   width="47.099998mm"
   height="52.099998mm"
   viewBox="0 0 47.099998 52.099998"
   version="1.1"
   id="svg1459"
   inkscape:version="1.1 (c68e22c387, 2021-05-23)"
   sodipodi:docname="end_cap.svg"
   xmlns:inkscape="http://www.inkscape.org/namespaces/inkscape"
   xmlns:sodipodi="http://sodipodi.sourceforge.net/DTD/sodipodi-0.dtd"
   xmlns="http://www.w3.org/2000/svg"
   xmlns:svg="http://www.w3.org/2000/svg">
  <sodipodi:namedview
     id="namedview1461"
     pagecolor="#ffffff"
     bordercolor="#666666"
     borderopacity="1.0"
     inkscape:pageshadow="2"
     inkscape:pageopacity="0.0"
     inkscape:pagecheckerboard="0"
     inkscape:document-units="mm"
     showgrid="false"
     inkscape:zoom="0.69397447"
     inkscape:cx="118.88045"
     inkscape:cy="118.88045"
     inkscape:window-width="1920"
     inkscape:window-height="1001"
     inkscape:window-x="1591"
     inkscape:window-y="-9"
     inkscape:window-maximized="1"
     inkscape:current-layer="layer1" />
  <defs
     id="defs1456" />
  <g
     inkscape:label="Layer 1"
     inkscape:groupmode="layer"
     id="layer1"
     transform="translate(-73.670796,-116.92176)">
    <g
       id="panel2735"
       transform="translate(73.170796,69.321759)"
       style="stroke:#ff0000;stroke-opacity:1">
      <path
         style="fill:none;stroke:#ff0000;stroke-width:1;stroke-opacity:1"
         d="m 4,51.1 h 3.975 v -3 h 6.1 v 3 H 21 v -3 h 6.1 v 3 h 6.925 v -3 h 6.1 v 3 H 44.1"
         id="path913" />
      <path
         style="fill:none;stroke:#ff0000;stroke-width:1;stroke-opacity:1"
         d="m 44.1,51.1 v 5.225 h 3 v 6.1 h -3 V 70.6 h 3 v 6.1 h -3 v 8.175 h 3 v 6.1 h -3 V 96.2"
         id="path915" />
      <path
         style="fill:none;stroke:#ff0000;stroke-width:1;stroke-opacity:1"
         d="m 44.1,96.2 h -3.975 v 3 h -6.1 v -3 H 27.1 v 3 H 21 v -3 h -6.925 v 3 h -6.1 v -3 H 4"
         id="path917" />
      <path
         style="fill:none;stroke:#ff0000;stroke-width:1;stroke-opacity:1"
         d="M 4,96.2 V 90.975 H 1 v -6.1 H 4 V 76.7 H 1 V 70.6 H 4 V 62.425 H 1 v -6.1 H 4 V 51.1"
         id="path919" />
    </g>
  </g>
</svg>
