<?xml version="1.0" encoding="UTF-8" standalone="no"?>
<!-- Created with Inkscape (http://www.inkscape.org/) -->

<svg
   width="160.29211mm"
   height="170.40561mm"
   viewBox="0 0 160.29211 170.40561"
   version="1.1"
   id="svg5"
   inkscape:version="1.1 (c68e22c387, 2021-05-23)"
   sodipodi:docname="led_sign_template.svg"
   xmlns:inkscape="http://www.inkscape.org/namespaces/inkscape"
   xmlns:sodipodi="http://sodipodi.sourceforge.net/DTD/sodipodi-0.dtd"
   xmlns="http://www.w3.org/2000/svg"
   xmlns:svg="http://www.w3.org/2000/svg">
  <sodipodi:namedview
     id="namedview7"
     pagecolor="#ffffff"
     bordercolor="#666666"
     borderopacity="1.0"
     inkscape:pageshadow="2"
     inkscape:pageopacity="0.0"
     inkscape:pagecheckerboard="0"
     inkscape:document-units="mm"
     showgrid="false"
     inkscape:zoom="0.72337264"
     inkscape:cx="332.47041"
     inkscape:cy="322.79352"
     inkscape:window-width="1920"
     inkscape:window-height="1001"
     inkscape:window-x="1591"
     inkscape:window-y="-9"
     inkscape:window-maximized="1"
     inkscape:current-layer="layer1"
     inkscape:lockguides="true"
     showguides="true"
     inkscape:guide-bbox="true"
     inkscape:snap-global="false">
    <inkscape:grid
       type="xygrid"
       id="grid2119"
       originx="-23.472142"
       originy="-63.451889" />
    <sodipodi:guide
       position="-94.366989,10.201181"
       orientation="0,-1"
       id="guide836"
       inkscape:locked="true" />
    <sodipodi:guide
       position="20.574199,0.14268379"
       orientation="0,-1"
       id="guide838"
       inkscape:locked="true" />
    <sodipodi:guide
       position="-2.5510732e-09,129.07433"
       orientation="1,0"
       id="guide1243"
       inkscape:locked="true" />
    <sodipodi:guide
       position="160.20443,107.12852"
       orientation="1,0"
       id="guide1245"
       inkscape:locked="true" />
  </sodipodi:namedview>
  <defs
     id="defs2">
    <inkscape:perspective
       sodipodi:type="inkscape:persp3d"
       inkscape:vp_x="0 : 21.905606 : 1"
       inkscape:vp_y="0 : 1000 : 0"
       inkscape:vp_z="209.99999 : 21.905606 : 1"
       inkscape:persp3d-origin="104.99999 : -27.594395 : 1"
       id="perspective1839" />
    <rect
       x="359.42749"
       y="792.12286"
       width="13.824134"
       height="51.149296"
       id="rect7973" />
  </defs>
  <g
     inkscape:label="Layer 1"
     inkscape:groupmode="layer"
     id="layer1"
     style="display:inline"
     transform="translate(-23.472147,-63.451892)">
    <text
       xml:space="preserve"
       transform="scale(0.26458333)"
       id="text7971"
       style="font-style:normal;font-weight:normal;font-size:40px;line-height:1.25;font-family:sans-serif;white-space:pre;shape-inside:url(#rect7973);fill:#000000;fill-opacity:1;stroke:none" />
    <path
       id="rect1291"
       style="fill:none;stroke:#ff0000;stroke-width:0.28535"
       d="m 50.512404,63.594567 c -14.901447,0 -26.897582,11.99665 -26.897582,26.898099 V 223.72226 h 5.110799 v 4.78472 5.20784 H 178.51028 v -5.20784 -4.78472 h 5.11131 V 90.492666 c 0,-14.901449 -11.99665,-26.898099 -26.8981,-26.898099 z"
       sodipodi:nodetypes="ssccccccccsss" />
    <text
       xml:space="preserve"
       style="font-style:normal;font-weight:normal;font-size:10.5833px;line-height:1.25;font-family:sans-serif;fill:#000000;fill-opacity:1;stroke:none;stroke-width:0.264583"
       x="209.75467"
       y="151.96666"
       id="text1362"><tspan
         sodipodi:role="line"
         id="tspan1360"
         style="stroke-width:0.264583"
         x="209.75467"
         y="151.96666" /></text>
  </g>
</svg>
