M48
; DRILL file {KiCad (5.1.10)-1} date 09/10/21 17:02:16
; FORMAT={-:-/ absolute / metric / decimal}
; #@! TF.CreationDate,2021-09-10T17:02:16-05:00
; #@! TF.GenerationSoftware,Kicad,Pcbnew,(5.1.10)-1
; #@! TF.FileFunction,Plated,1,2,PTH
FMAT,2
METRIC
T1C0.750
T2C0.800
T3C0.890
T4C0.900
T5C0.950
T6C1.000
T7C1.100
T8C1.400
T9C2.000
T10C2.010
%
G90
G05
T1
X177.292Y-69.342
X178.562Y-68.072
X179.832Y-69.342
T2
X65.405Y-37.465
X65.405Y-47.625
X73.025Y-37.211
X73.025Y-47.371
X80.645Y-37.211
X80.645Y-47.371
X88.265Y-37.211
X88.265Y-47.371
X88.646Y-59.008
X88.646Y-64.008
X88.9Y-67.898
X88.9Y-72.898
X95.25Y-58.928
X95.25Y-71.628
X95.885Y-37.211
X95.885Y-47.371
X102.362Y-58.928
X102.362Y-71.628
X103.505Y-37.211
X103.505Y-47.371
X106.506Y-74.168
X111.125Y-37.211
X111.125Y-47.371
X111.506Y-74.168
X118.745Y-37.211
X118.745Y-47.371
X125.095Y-75.565
X126.365Y-37.211
X126.365Y-47.371
X128.016Y-60.706
X128.016Y-63.246
X128.016Y-65.786
X128.016Y-68.326
X130.095Y-75.565
X133.985Y-37.211
X133.985Y-47.371
X135.636Y-60.706
X135.636Y-63.246
X135.636Y-65.786
X135.636Y-68.326
X136.525Y-74.93
X136.525Y-85.09
X141.605Y-37.211
X141.605Y-47.371
X143.51Y-74.93
X143.51Y-85.09
X149.225Y-37.211
X149.225Y-47.371
X152.4Y-63.5
X156.845Y-37.211
X156.845Y-47.371
X162.56Y-63.5
X164.465Y-37.211
X164.465Y-47.371
X170.18Y-63.5
X170.18Y-73.66
X172.085Y-37.211
X172.085Y-47.371
X179.705Y-37.211
X179.705Y-47.371
X187.325Y-37.211
X187.325Y-47.371
X187.96Y-63.5
X187.96Y-73.66
X194.945Y-37.211
X194.945Y-47.371
X195.58Y-63.5
X202.565Y-37.211
X202.565Y-47.371
X205.74Y-63.5
X210.185Y-37.211
X210.185Y-47.371
T3
X70.485Y-81.28
X73.025Y-81.28
T4
X65.405Y-41.275
X65.405Y-43.815
X73.025Y-41.275
X73.025Y-43.815
X80.645Y-41.275
X80.645Y-43.815
X88.265Y-41.275
X88.265Y-43.815
X95.885Y-41.275
X95.885Y-43.815
X103.505Y-41.275
X103.505Y-43.815
X111.125Y-41.275
X111.125Y-43.815
X118.745Y-41.275
X118.745Y-43.815
X126.365Y-41.275
X126.365Y-43.815
X133.985Y-41.275
X133.985Y-43.815
X141.605Y-41.275
X141.605Y-43.815
X149.225Y-41.275
X149.225Y-43.815
X156.845Y-41.275
X156.845Y-43.815
X164.465Y-41.275
X164.465Y-43.815
X172.085Y-41.275
X172.085Y-43.815
X179.705Y-41.275
X179.705Y-43.815
X187.325Y-41.275
X187.325Y-43.815
X194.945Y-41.275
X194.945Y-43.815
X202.565Y-41.275
X202.565Y-43.815
X210.185Y-41.275
X210.185Y-43.815
T5
X219.075Y-40.005
X219.075Y-42.505
X219.075Y-45.005
X219.075Y-60.405
X219.075Y-62.905
X219.075Y-65.405
T6
X84.074Y-86.36
X86.574Y-86.36
X180.086Y-78.74
X182.586Y-78.74
X185.086Y-78.74
T7
X154.94Y-71.12
X157.48Y-71.12
X160.02Y-71.12
X200.66Y-71.732
X203.2Y-71.732
X205.74Y-71.732
T8
X66.04Y-60.96
X66.04Y-71.12
X73.914Y-60.96
X73.914Y-71.12
X83.82Y-78.74
X93.98Y-78.74
X108.966Y-67.31
X118.11Y-78.74
X118.11Y-88.9
X119.126Y-67.31
T9
X80.772Y-61.468
X81.026Y-71.374
X93.98Y-86.614
X109.474Y-59.944
X118.364Y-59.944
X127.762Y-83.566
X144.78Y-60.96
X147.32Y-71.12
X169.164Y-79.756
X178.562Y-60.706
X213.106Y-73.66
T10
X65.405Y-86.36
X75.565Y-86.36
T6
X104.156Y-80.01G85X106.156Y-80.01
G05
X104.156Y-86.01G85X106.156Y-86.01
G05
X109.856Y-84.01G85X109.856Y-82.01
G05
T0
M30
